Bayesian Factor Scores — befa_factor_scores • BayesianEFA
…
posterior_summaries(befa_fit, pars = "eta")

# # A tibble: 903 × 10
#    variable    mean median    sd   mad     q5    q95  rhat ess_bulk ess_tail
#    <chr>      <dbl>  <dbl> <dbl> <dbl>  <dbl>  <dbl> <dbl>    <dbl>    <dbl>
#  1 eta[1,1]  -0.719 -0.734 0.627 0.645 -1.73   0.317 1.00     4025.    3803.
#  2 eta[2,1]   0.595  0.591 0.624 0.611 -0.430  1.61  1.00     4003.    3849.
#  3 eta[3,1]  -0.161 -0.165 0.601 0.588 -1.16   0.836 1.00     3732.    4035.
#  4 eta[4,1]   0.717  0.706 0.600 0.594 -0.264  1.72  1.00     3851.    3791.
#  5 eta[5,1]  -0.507 -0.507 0.596 0.586 -1.47   0.497 1.000    3925.    3645.
#  6 eta[6,1]   0.469  0.473 0.611 0.624 -0.528  1.48  1.000    3556.    3836.
#  7 eta[7,1]  -1.40  -1.40  0.611 0.622 -2.40  -0.422 1.00     3698.    3830.
#  8 eta[8,1]  -0.134 -0.127 0.596 0.580 -1.11   0.846 1.00     4070.    3815.
#  9 eta[9,1]  -0.298 -0.298 0.595 0.600 -1.28   0.672 1.000    4000.    3938.
# 10 eta[10,1] -1.35  -1.35  0.593 0.605 -2.29  -0.358 1.00     3965.    3718.
# # 893 more rows
# # Use `print(n = ...)` to see more rows
…
